Generate a comprehensive summary of the variables — varlist • spicy
…
#> # A tibble: 10 × 7
#>    Variable               Label            Values Class N_distinct N_valid   NAs
#>    <chr>                  <chr>            <chr>  <chr>      <int>   <int> <int>
#>  1 age                    Age (years)      25, 2… nume…         51    1200     0
#>  2 income                 Monthly househo… 1000,… nume…       1052    1200     0
#>  3 wellbeing_score        WHO-5 wellbeing… 18.7,… nume…        517    1200     0
#>  4 bmi                    Body mass index  16, 1… nume…        177    1188    12
#>  5 political_position     Political posit… 0, 1,… nume…         11    1185    15
#>  6 life_sat_health        Satisfaction wi… 1, 2,… inte…          5    1192     8
#>  7 life_sat_work          Satisfaction wi… 1, 2,… inte…          5    1192     8
#>  8 life_sat_relationships Satisfaction wi… 1, 2,… inte…          5    1192     8
#>  9 life_sat_standard      Satisfaction wi… 1, 2,… inte…          5    1192     8
#> 10 weight                 Survey design w… 0.294… nume…        794    1200     0
varlist(sochealth, tbl = TRUE)
#> # A tibble: 24 × 7
#>    Variable          Label                 Values Class N_distinct N_valid   NAs
#>    <chr>             <chr>                 <chr>  <chr>      <int>   <int> <int>
#>  1 sex               Sex                   Femal… fact…          2    1200     0
#>  2 age               Age (years)           25, 2… nume…         51    1200     0
#>  3 age_group         Age group             25-34… orde…          4    1200     0
#>  4 education         Highest education le… Lower… orde…          3    1200     0
#>  5 social_class      Subjective social cl… Lower… orde…          5    1200     0
#>  6 region            Region of residence   Centr… fact…          6    1200     0
#>  7 employment_status Employment status     Emplo… fact…          4    1200     0
#>  8 income_group      Household income gro… Low, … orde…          4    1182    18
#>  9 income            Monthly household in… 1000,… nume…       1052    1200     0
#> 10 smoking           Current smoker        No, Y… fact…          2    1175    25
#> # ℹ 14 more rows
…
