Multinomial regression tables • spicy
…
2515.8 

Note. Multinomial logistic regression. Std. errors: Wald
asymptotic (z). AME = average marginal effect on a response-category
probability.

broom::tidy()
returns the long frame, one row per (term, estimate_type);
the per-outcome structure is carried in the term labels, and AME rows
cover all \(J\) categories including
the reference:

broom::tidy(table_regression(fit, show_columns = c("b", "ame")))
#> # A tibble: 31 × 15
#>    model_id outcome    term  estimate_type estimate std.error conf.low conf.high
#>    <chr>    <chr>      <chr> <chr>            <dbl>     <dbl>    <dbl>     <dbl>
#>  1 M1       employmen… Stud… B             -1.43e+0  0.386    -2.18e+0 -0.672   
#>  2 M1       employmen… Unem… B             -7.23e-1  0.333    -1.38e+0 -0.0716  
#>  3 M1       employmen… Inac… B             -1.75e+0  0.400    -2.53e+0 -0.965   
#>  4 M1       employmen… Stud… ame           -1.06e-3  0.000641 -2.32e-3  0.000199
#>  5 M1       employmen… Stud… B             -1.04e-2  0.00627  -2.27e-2  0.00188 
#>  6 M1       employmen… Unem… ame           -2.72e-4  0.000683 -1.61e-3  0.00107 
#>  7 M1       employmen… Unem… B             -3.38e-3  0.00583  -1.48e-2  0.00804 
#>  8 M1       employmen… Inac… ame            3.91e-4  0.000591 -7.67e-4  0.00155 
#>  9 M1       employmen… Inac… B              2.40e-3  0.00667  -1.07e-2  0.0155  
#> 10 M1       employmen… Empl… ame            9.39e-4  0.000941 -9.06e-4  0.00278 
#> # ℹ 21 more rows
#> # ℹ 7 more variables: statistic <dbl>, df <dbl>, p.value <dbl>,
#> #   test_type <chr>, is_intercept <lgl>, factor_term <chr>, factor_level <chr>
…
