…
*Note.* Multinomial logistic regression. Std. errors: Wald asymptotic
(z). AME = average marginal effect on a response-category probability.
Reference outcome: Employed.

[`broom::tidy()`](https://broom.tidymodels.org) always returns the long
frame, one row per `(term, estimate_type)`, whatever the display layout
— the per-outcome structure is carried in the term labels
(`"Student: age"`), and AME rows cover all \\J\\ categories including
the reference:

``` r

broom::tidy(table_regression(fit, show_columns = c("b", "ame")))
#> # A tibble: 31 × 16
#>    model_id outcome      outcome_level term  estimate_type estimate std.error conf.low conf.high statistic    df p.value test_type
#>    <chr>    <chr>        <chr>         <chr> <chr>            <dbl>     <dbl>    <dbl>     <dbl>     <dbl> <dbl>   <dbl> <chr>    
#>  1 M1       employment_… Student       Stud… B             -1.43e+0  0.386    -2.18e+0 -0.672       -3.70    Inf 2.13e-4 z        
#>  2 M1       employment_… Unemployed    Unem… B             -7.23e-1  0.333    -1.38e+0 -0.0716      -2.18    Inf 2.96e-2 z        
#>  3 M1       employment_… Inactive      Inac… B             -1.75e+0  0.400    -2.53e+0 -0.965       -4.37    Inf 1.23e-5 z        
#>  4 M1       employment_… Student       Stud… ame           -1.06e-3  0.000641 -2.32e-3  0.000199    -1.65    Inf 9.89e-2 z        
#>  5 M1       employment_… Student       Stud… B             -1.04e-2  0.00627  -2.27e-2  0.00188     -1.66    Inf 9.70e-2 z        
#>  6 M1       employment_… Unemployed    Unem… ame           -2.72e-4  0.000683 -1.61e-3  0.00107     -0.398   Inf 6.91e-1 z        
#>  7 M1       employment_… Unemployed    Unem… B             -3.38e-3  0.00583  -1.48e-2  0.00804     -0.580   Inf 5.62e-1 z        
#>  8 M1       employment_… Inactive      Inac… ame            3.91e-4  0.000591 -7.67e-4  0.00155      0.661   Inf 5.08e-1 z        
#>  9 M1       employment_… Inactive      Inac… B              2.40e-3  0.00667  -1.07e-2  0.0155       0.360   Inf 7.19e-1 z        
#> 10 M1       employment_… Employed      Empl… ame            9.39e-4  0.000941 -9.06e-4  0.00278      0.998   Inf 3.18e-1 z        
#> # ℹ 21 more rows
#> # ℹ 3 more variables: is_intercept <lgl>, factor_term <chr>, factor_level <chr>
```
…
